VeriSlicer/Error_designs/error_design_6_2/design_6.vcd
$date
	Sat May 30 10:32:07 2026
$end
$version
	Icarus Verilog
$end
$timescale
	1ps
$end
$scope module design_6 $end
$var wire 16 ! MAC_input_B [15:0] $end
$var wire 1 " clk $end
$var wire 1 # data_R $end
$var wire 1 $ data_W $end
$var wire 10 % data_address [9:0] $end
$var wire 16 & data_in [15:0] $end
$var wire 16 ' data_out [15:0] $end
$var wire 10 ( instruction_address [9:0] $end
$var wire 18 ) instruction_in [17:0] $end
$var wire 1 * rst $end
$var wire 16 + shiftoutput [15:0] $end
$var wire 16 , shiftinput [15:0] $end
$var wire 6 - opcode [5:0] $end
$var wire 1 . done $end
$var wire 16 / comp_input_B [15:0] $end
$var wire 16 0 comp_input_A [15:0] $end
$var wire 16 1 Mul_output_Cout [15:0] $end
$var wire 16 2 MAC_input_A [15:0] $end
$var wire 16 3 Add_output_Cout [15:0] $end
$var parameter 3 4 STATE_EX $end
$var parameter 3 5 STATE_HALT $end
$var parameter 3 6 STATE_ID $end
$var parameter 3 7 STATE_IDLE $end
$var parameter 3 8 STATE_IF $end
$var parameter 3 9 STATE_MEM $end
$var parameter 3 : STATE_WB $end
$var reg 1 ; CMD_addition $end
$var reg 1 < CMD_and $end
$var reg 1 = CMD_load $end
$var reg 1 > CMD_logic_shift_left $end
$var reg 1 ? CMD_logic_shift_right $end
$var reg 1 @ CMD_loopjump $end
$var reg 1 A CMD_mul_accumulation $end
$var reg 1 B CMD_multiplication $end
$var reg 1 C CMD_not $end
$var reg 1 D CMD_or $end
$var reg 1 E CMD_set $end
$var reg 1 F CMD_setloop $end
$var reg 1 G CMD_store $end
$var reg 1 H CMD_substruction $end
$var reg 1 I Him $end
$var reg 1 J Hreg1 $end
$var reg 1 K Hreg2 $end
$var reg 1 L Hreg3 $end
$var reg 10 M LC [9:0] $end
$var reg 1 N Oim $end
$var reg 1 O Oreg1 $end
$var reg 1 P Oreg2 $end
$var reg 1 Q Oreg3 $end
$var reg 10 R PC [9:0] $end
$var reg 1 S Qim $end
$var reg 1 T Qreg1 $end
$var reg 1 U Qreg2 $end
$var reg 1 V Qreg3 $end
$var reg 2 W R0 [1:0] $end
$var reg 2 X R1 [1:0] $end
$var reg 2 Y R2 [1:0] $end
$var reg 2 Z R3 [1:0] $end
$var reg 10 [ current_data_address [9:0] $end
$var reg 3 \ current_state [2:0] $end
$var reg 16 ] data_out_reg [15:0] $end
$var reg 10 ^ im_reg [9:0] $end
$var reg 10 _ next_PC [9:0] $end
$var reg 1 ` rdata_en $end
$var reg 16 a result_reg_Lshift [15:0] $end
$var reg 16 b result_reg_Rshift [15:0] $end
$var reg 16 c result_reg_add [15:0] $end
$var reg 16 d result_reg_and [15:0] $end
$var reg 16 e result_reg_mac [15:0] $end
$var reg 16 f result_reg_mul [15:0] $end
$var reg 16 g result_reg_not [15:0] $end
$var reg 16 h result_reg_or [15:0] $end
$var reg 16 i result_reg_set [15:0] $end
$var reg 16 j result_reg_sub [15:0] $end
$var reg 1 k wdata_en $end
$scope module Add $end
$var wire 16 l A [15:0] $end
$var wire 16 m B [15:0] $end
$var wire 1 n H $end
$var wire 1 o O $end
$var wire 1 p Q $end
$var wire 1 H sub $end
$var wire 16 q Cout [15:0] $end
$var wire 5 r C3 [4:0] $end
$var wire 5 s C2 [4:0] $end
$var wire 5 t C1 [4:0] $end
$var wire 5 u C0 [4:0] $end
$var wire 16 v B_real [15:0] $end
$upscope $end
$scope module Mul $end
$var wire 1 w H $end
$var wire 1 x O $end
$var wire 1 y Q $end
$var wire 16 z a0 [15:0] $end
$var wire 16 { a1 [15:0] $end
$var wire 16 | a10 [15:0] $end
$var wire 16 } a11 [15:0] $end
$var wire 16 ~ a12 [15:0] $end
$var wire 16 !" a13 [15:0] $end
$var wire 16 "" a14 [15:0] $end
$var wire 16 #" a15 [15:0] $end
$var wire 16 $" a2 [15:0] $end
$var wire 16 %" a3 [15:0] $end
$var wire 16 &" a4 [15:0] $end
$var wire 16 '" a5 [15:0] $end
$var wire 16 (" a6 [15:0] $end
$var wire 16 )" a7 [15:0] $end
$var wire 16 *" a8 [15:0] $end
$var wire 16 +" a9 [15:0] $end
$var wire 16 ," mulinputa [15:0] $end
$var wire 16 -" mulinputb [15:0] $end
$var wire 4 ." tmp3q [3:0] $end
$var wire 4 /" tmp3o [3:0] $end
$var wire 4 0" tmp3h [3:0] $end
$var wire 16 1" tmp3 [15:0] $end
$var wire 4 2" tmp2q [3:0] $end
$var wire 4 3" tmp2o [3:0] $end
$var wire 4 4" tmp2h [3:0] $end
$var wire 16 5" tmp2 [15:0] $end
$var wire 4 6" tmp1q [3:0] $end
$var wire 4 7" tmp1o [3:0] $end
$var wire 4 8" tmp1h [3:0] $end
$var wire 16 9" tmp11 [15:0] $end
$var wire 16 :" tmp1 [15:0] $end
$var wire 16 ;" tmp000 [15:0] $end
$var wire 16 <" tmp00 [15:0] $end
$var wire 16 =" tmp0 [15:0] $end
$var wire 16 >" sel3 [15:0] $end
$var wire 16 ?" sel2 [15:0] $end
$var wire 16 @" sel1 [15:0] $end
$var wire 16 A" sel0 [15:0] $end
$var wire 16 B" muloutput [15:0] $end
$upscope $end
$scope module shift $end
$var wire 1 J H $end
$var wire 1 O O $end
$var wire 1 T Q $end
$var wire 1 > left $end
$var wire 16 C" shiftinput [15:0] $end
$var wire 16 D" shiftoutput_tmp [15:0] $end
$var wire 16 E" shiftoutput [15:0] $end
$var wire 15 F" right_shift [14:0] $end
$var wire 15 G" left_shift [14:0] $end
$upscope $end
$upscope $end
$enddefinitions $end
$comment Show the parameter values. $end
$dumpall
b101 :
b100 9
b1 8
b0 7
b10 6
b110 5
b11 4
$end
#0
$dumpvars
bx G"
bx F"
b0xxx0xxx0xxx0xxx E"
b0xxxxxxxxxxxxxxx D"
bx C"
bx B"
b1111 A"
b11110000 @"
b111100000000 ?"
b1111000000000000 >"
bx ="
bx <"
bx ;"
bx :"
bx 9"
bx 8"
bx 7"
bx 6"
bx 5"
bx 4"
bx 3"
bx 2"
bx 1"
bx 0"
bx /"
bx ."
bx -"
bx ,"
b0xxxx00000000 +"
b0xxxx00000000 *"
b0xxxx0000 )"
b0xxxx0000 ("
b0xxxx0000 '"
b0xxxx0000 &"
b0xxxx %"
b0xxxx $"
bx000000000000 #"
bx000000000000 ""
bx000000000000 !"
bx000000000000 ~
b0xxxx00000000 }
b0xxxx00000000 |
b0xxxx {
b0xxxx z
0y
0x
0w
bx v
bx u
bx t
bx s
bx r
bx q
0p
0o
0n
bx m
bx l
0k
b0 j
b0 i
b0 h
b0 g
b0 f
b0 e
b0 d
b0 c
b0 b
b0 a
0`
b0 _
b0 ^
bx ]
b0 \
b0 [
b0 Z
b0 Y
b0 X
b0 W
0V
0U
0T
0S
b0 R
0Q
0P
0O
0N
bx M
0L
0K
0J
0I
0H
0G
0F
0E
0D
0C
0B
0A
0@
0?
0>
0=
0<
0;
bx 3
bx 2
bx 1
bx 0
bx /
0.
b0 -
bx ,
b0xxx0xxx0xxx0xxx +
1*
b0 )
b0 (
bx '
b0 &
b0 %
0$
0#
1"
bx !
$end
#10000
b100110 -
b100110000000000000 )
0"
#20000
1"
#30000
0"
#40000
1"
#50000
0*
0"
#60000
b1 \
1"
#70000
0"
#80000
b10 \
1"
#90000
0"
#100000
b0 8"
b0 4"
b0 0"
b0 7"
b0 ;"
b0 3"
b0 /"
b0 !
b0 1
b0 B"
b0 <"
b0 6"
b0 2"
b0 9"
b0 ."
b0 ="
b0 :"
b0 5"
b0 1"
b0 %"
b0 $"
b0 {
b0 z
b0 )"
b0 ("
b0 '"
b0 &"
b0 }
b0 |
b0 +"
b0 *"
b0 #"
b0 ""
b0 !"
b0 ~
b0 v
b1111111111111111 A"
b1111111111111111 @"
b1111111111111111 ?"
b1111111111111111 >"
b0 m
b0xxxxxxxxxxxxxxx +
b0xxxxxxxxxxxxxxx E"
1w
1n
b0 /
b0 -"
1I
1J
1=
b11 \
1"
#110000
0"
#120000
b0 r
b0 s
b0 t
b0 3
b0 q
b0 +
b0 E"
b0 u
b0 D"
b0 l
b0 G"
b0 F"
b0 0
b0 ,"
b0 ,
b0 C"
b100 \
b1 _
1#
1`
1"
#130000
b101 &
0"
#140000
b101 3
b101 q
b10 +
b10 E"
b101 u
b10 D"
b101 l
b101 G"
b10 F"
b101 0
b101 ,"
b101 ,
b101 C"
b101 \
1"
#150000
0"
#160000
b1 (
b1 R
b1 \
1"
#170000
b100110010000000001 )
0"
#180000
bx 8"
bx 4"
bx 0"
bx 7"
bx !
bx 1
bx B"
bx 6"
bx 3"
bx /"
bx 2"
bx ."
bx 3
bx q
b0xxx0xxx0xxx0xxx +
b0xxx0xxx0xxx0xxx E"
b0xxxx %"
b0xxxx $"
b0xxxx {
bx ;"
bx <"
bx ="
b0xxxx z
b0xxxx0000 )"
b0xxxx0000 ("
b0xxxx0000 '"
bx :"
b0xxxx0000 &"
b0xxxx00000000 }
b0xxxx00000000 |
b0xxxx00000000 +"
bx 9"
bx 5"
b0xxxx00000000 *"
bx000000000000 #"
bx000000000000 ""
bx000000000000 !"
bx 1"
bx000000000000 ~
bx u
bx t
bx s
bx r
bx v
b0xxxxxxxxxxxxxxx D"
b1111 A"
b11110000 @"
b111100000000 ?"
b1111000000000000 >"
bx l
bx m
bx G"
bx F"
0w
0n
bx 0
bx ,"
bx /
bx -"
bx ,
bx C"
0#
0`
0I
0J
0=
b10 \
1"
#190000
0"
#200000
b0 3"
b0 /"
b0 6"
b0 2"
b0 9"
b0 ."
b0 :"
b0 5"
b0 1"
b0 %"
b0 $"
b0 {
bx z
b0 )"
b0 ("
b0 '"
b0 &"
b0 }
b0 |
b0 +"
b0 *"
b0 #"
b0 ""
b0 !"
b0 ~
b1 v
b1111111111111111 A"
b1111111111111111 @"
b1111111111111111 ?"
b1111111111111111 >"
b1 m
b0xxxxxxxxxxxxxxx +
b0xxxxxxxxxxxxxxx E"
1w
1n
b1 /
b1 -"
b11 \
b1 Z
b1 W
b1 ^
1I
1J
1=
1"
#210000
0"
#220000
b0 r
b0 s
b0 t
b110 3
b110 q
b0 8"
b0 4"
b0 0"
b0 7"
b101 !
b101 1
b101 B"
b10 +
b10 E"
b110 u
b101 ;"
b101 <"
b101 ="
b101 z
b10 D"
b101 l
b101 G"
b10 F"
b101 0
b101 ,"
b101 ,
b101 C"
b10 _
b1 %
b1 [
1#
1`
b100 \
1"
#230000
b1111 &
0"
#240000
b1 t
b10000 3
b10000 q
b1111 !
b1111 1
b1111 B"
b111 +
b111 E"
b10000 u
b1111 ;"
b1111 <"
b1111 ="
b1111 z
b111 D"
b1111 l
b1111 G"
b111 F"
b1111 0
b1111 ,"
b1111 ,
b1111 C"
b101 \
1"
#250000
0"
#260000
b10 (
b10 R
b1 \
1"
#270000
b100110100000000010 )
0"
#280000
bx 6"
bx 3"
bx /"
bx 2"
bx ."
bx 3
bx q
bx 8"
bx 4"
bx 0"
bx 7"
bx !
bx 1
bx B"
b0xxx0xxx0xxx0xxx +
b0xxx0xxx0xxx0xxx E"
b0xxxx %"
b0xxxx $"
b0xxxx {
b0xxxx0000 )"
b0xxxx0000 ("
b0xxxx0000 '"
bx :"
b0xxxx0000 &"
b0xxxx00000000 }
b0xxxx00000000 |
b0xxxx00000000 +"
bx 9"
bx 5"
b0xxxx00000000 *"
bx000000000000 #"
bx000000000000 ""
bx000000000000 !"
bx 1"
bx000000000000 ~
bx u
bx t
bx s
bx r
bx ;"
bx <"
bx ="
b0xxxx z
bx v
b0xxxxxxxxxxxxxxx D"
b1111 A"
b11110000 @"
b111100000000 ?"
b1111000000000000 >"
bx l
bx m
bx G"
bx F"
0w
0n
bx 0
bx ,"
bx /
bx -"
bx ,
bx C"
b10 \
b0 Z
b0 W
b0 ^
0I
0J
0=
0#
0`
b0 %
b0 [
1"
#290000
0"
#300000
b0 3"
b0 /"
b0 6"
b0 2"
b0 9"
b0 ."
b0 :"
b0 5"
b0 1"
b0 %"
b0 $"
bx {
b0 z
b0 )"
b0 ("
b0 '"
b0 &"
b0 }
b0 |
b0 +"
b0 *"
b0 #"
b0 ""
b0 !"
b0 ~
b10 v
b1111111111111111 A"
b1111111111111111 @"
b1111111111111111 ?"
b1111111111111111 >"
b10 m
b0xxxxxxxxxxxxxxx +
b0xxxxxxxxxxxxxxx E"
1w
1n
b10 /
b10 -"
b10 Z
b10 W
b10 ^
1I
1J
1=
b11 \
1"
#310000
0"
#320000
b0 r
b0 s
b1 t
b1 8"
b0 4"
b0 0"
b1 7"
b11110 !
b11110 1
b11110 B"
b10001 3
b10001 q
b11110 ;"
b11110 <"
b11110 ="
b111 +
b111 E"
b10001 u
b1111 {
b111 D"
b1111 l
b1111 G"
b111 F"
b1111 0
b1111 ,"
b1111 ,
b1111 C"
b100 \
b11 _
b10 %
b10 [
1#
1`
1"
#330000
b100 &
0"
#340000
b0 t
b0 8"
b0 7"
b1000 !
b1000 1
b1000 B"
b110 3
b110 q
b1000 ;"
b1000 <"
b1000 ="
b10 +
b10 E"
b110 u
b100 {
b10 D"
b100 l
b100 G"
b10 F"
b100 0
b100 ,"
b100 ,
b100 C"
b101 \
1"
#350000
0"
#360000
b11 (
b11 R
b1 \
1"
#370000
b0 -
b1 )
0"
#380000
bx 8"
bx 4"
bx 0"
bx 7"
bx !
bx 1
bx B"
bx 6"
bx 3"
bx /"
bx 2"
bx ."
bx 3
bx q
b0xxx0xxx0xxx0xxx +
b0xxx0xxx0xxx0xxx E"
b0xxxx %"
b0xxxx $"
bx ;"
bx <"
bx ="
b0xxxx z
b0xxxx0000 )"
b0xxxx0000 ("
b0xxxx0000 '"
bx :"
b0xxxx0000 &"
b0xxxx00000000 }
b0xxxx00000000 |
b0xxxx00000000 +"
bx 9"
bx 5"
b0xxxx00000000 *"
bx000000000000 #"
bx000000000000 ""
bx000000000000 !"
bx 1"
bx000000000000 ~
bx u
bx t
bx s
bx r
b0xxxx {
bx v
b0xxxxxxxxxxxxxxx D"
b1111 A"
b11110000 @"
b111100000000 ?"
b1111000000000000 >"
bx l
bx m
bx G"
bx F"
0w
0n
bx 0
bx ,"
bx /
bx -"
bx ,
bx C"
0#
0`
b0 %
b0 [
b0 Z
b0 W
b0 ^
0I
0J
0=
b10 \
1"
#390000
0"
#400000
b0 r
b0 s
b100 8"
b0 4"
b0 0"
b100 7"
b1001011 ;"
b0 3"
b0 /"
b1 t
b1001011 !
b1001011 1
b1001011 B"
b1001011 <"
b0 6"
b0 2"
b0 9"
b0 ."
b10100 3
b10100 q
b1001011 ="
b0 :"
b0 5"
b0 1"
b10100 u
b1111 v
b101 %"
b101 $"
b101 {
b101 z
b0 )"
b0 ("
b0 '"
b0 &"
b0 }
b0 |
b0 +"
b0 *"
b0 #"
b0 ""
b0 !"
b0 ~
b1111 m
b101 l
b1111111111111111 A"
b1111111111111111 @"
b1111111111111111 ?"
b1111111111111111 >"
b1111 /
b1111 -"
b101 0
b101 ,"
1w
1n
b11 \
b1 Z
b1 ^
1K
1;
1"
#410000
0"
#420000
b100 _
b10100 c
b100 \
1"
#430000
0"
#440000
b101 \
1"
#450000
0"
#460000
b1 4"
b100011 3
b100011 q
b10 8"
b10 7"
b100101100 !
b100101100 1
b100101100 B"
b10011 u
b10 t
b100101100 ;"
b100101100 <"
b100101100 ="
b10100 z
b10100 {
b10100 $"
b10100 %"
b10100 l
b10100 0
b10100 ,"
b100 (
b100 R
b1 \
1"
#470000
b1000 )
0"
#480000
bx 6"
bx 3"
bx /"
bx 2"
bx ."
bx :"
b0xxxx0000 &"
b0xxxx0000 '"
b0xxxx0000 ("
b0xxxx0000 )"
bx 9"
bx 5"
b0xxxx00000000 *"
b0xxxx00000000 +"
b0xxxx00000000 |
b0xxxx00000000 }
bx 1"
bx000000000000 ~
bx000000000000 !"
bx000000000000 ""
bx000000000000 #"
bx 8"
bx 4"
bx 0"
bx 7"
bx 3
bx q
bx u
bx s
bx r
bx v
b0xxxx %"
b0xxxx $"
b0xxxx {
bx ;"
bx <"
bx ="
b0xxxx z
bx t
bx l
bx m
b1111 A"
b11110000 @"
b111100000000 ?"
b1111000000000000 >"
bx !
bx 1
bx B"
bx 0
bx ,"
bx /
bx -"
0w
0n
b10 \
b0 Z
b0 ^
0K
0;
b0 c
1"
#490000
0"
#500000
b0 r
b0 s
b101 8"
b0 4"
b0 0"
b101 7"
b1010000 ;"
b0 3"
b0 /"
b1 t
b1010000 !
b1010000 1
b1010000 B"
b1010000 <"
b0 6"
b0 2"
b0 9"
b0 ."
b11000 3
b11000 q
b10000 ="
b100 :"
b0 5"
b0 1"
b1000 u
b10100 v
b0 %"
b100 $"
b0 {
b0 z
b0 )"
b0 ("
b0 '"
b100 &"
b0 }
b0 |
b0 +"
b0 *"
b0 #"
b0 ""
b0 !"
b0 ~
b10100 m
b100 l
b1111111111111111 A"
b1111111111111111 @"
b1111111111111111 ?"
b1111111111111111 >"
b10100 /
b10100 -"
b100 0
b100 ,"
1w
1n
b10 Y
b1000 ^
1K
1;
b11 \
1"
#510000
0"
#520000
b100 \
b101 _
b11000 c
1"
#530000
0"
#540000
b101 \
1"
#550000
0"
#560000
b111100000 !
b111100000 1
b111100000 B"
b1110 8"
b1 4"
b1110 7"
b101100 3
b101100 q
b1100000 ="
b111100000 ;"
b111100000 <"
b1 6"
b1100 u
b10 t
b11000 $"
b11000 :"
b11000 &"
b11000 l
b11000 0
b11000 ,"
b101 (
b101 R
b1 \
1"
#570000
b101001 -
b101001000000000000 )
0"
#580000
bx 3"
bx /"
bx 2"
bx ."
bx 8"
bx 4"
bx 0"
bx 7"
b0xxxx z
b0xxxx {
b0xxxx %"
b0xxxx0000 '"
b0xxxx0000 ("
b0xxxx0000 )"
bx 9"
bx 5"
b0xxxx00000000 *"
b0xxxx00000000 +"
b0xxxx00000000 |
b0xxxx00000000 }
bx 1"
bx000000000000 ~
bx000000000000 !"
bx000000000000 ""
bx000000000000 #"
bx 3
bx q
bx ="
bx ;"
bx <"
bx 6"
bx v
bx u
bx t
bx s
bx r
b0xxxx $"
bx :"
b0xxxx0000 &"
bx m
bx l
b1111 A"
b11110000 @"
b111100000000 ?"
b1111000000000000 >"
bx !
bx 1
bx B"
bx /
bx -"
bx 0
bx ,"
0w
0n
b0 c
b0 Y
b0 ^
0K
0;
b10 \
1"
#590000
0"
#600000
b0 r
b0 s
b0 8"
b0 4"
b0 0"
b0 7"
b0 ;"
b0 3"
b0 /"
b1 t
b0 !
b0 1
b0 B"
b0 <"
b0 6"
b0 2"
b0 9"
b0 ."
b10100 3
b10100 q
b0 ="
b0 :"
b0 5"
b0 1"
b100 u
b0 z
b0 {
b0 $"
b0 %"
b0 &"
b0 '"
b0 ("
b0 )"
b0 *"
b0 +"
b0 |
b0 }
b0 ~
b0 !"
b0 ""
b0 #"
b0 v
b1010 D"
b1111111111111111 A"
b1111111111111111 @"
b1111111111111111 ?"
b1111111111111111 >"
b10100 l
b0 m
b10100 G"
b1010 F"
b1010 +
b1010 E"
1w
1n
b10100 0
b10100 ,"
b0 /
b0 -"
b10100 ,
b10100 C"
b11 \
1I
1J
1G
1"
#610000
0"
#620000
b110 _
b10100 '
b10100 ]
b1111111111 %
b1111111111 [
1#
1`
1$
1k
b100 \
1"
#630000
0"
#640000
b101 \
1"
#650000
0"
#660000
b110 (
b110 R
b1 \
1"
#670000
b101100 -
b101100010100100010 )
0"
#680000
bx 8"
bx 4"
bx 0"
bx 7"
bx !
bx 1
bx B"
bx 6"
bx 3"
bx /"
bx 2"
bx ."
bx 3
bx q
b0xxxx %"
b0xxxx $"
b0xxxx {
bx ;"
bx <"
bx ="
b0xxxx z
b0xxxx0000 )"
b0xxxx0000 ("
b0xxxx0000 '"
bx :"
b0xxxx0000 &"
b0xxxx00000000 }
b0xxxx00000000 |
b0xxxx00000000 +"
bx 9"
bx 5"
b0xxxx00000000 *"
bx000000000000 #"
bx000000000000 ""
bx000000000000 !"
bx 1"
bx000000000000 ~
bx u
bx t
bx s
bx r
bx v
b0xxxxxxxxxxxxxxx D"
b0xxx0xxx0xxx0xxx +
b0xxx0xxx0xxx0xxx E"
b1111 A"
b11110000 @"
b111100000000 ?"
b1111000000000000 >"
bx l
bx m
bx G"
bx F"
0w
0n
bx 0
bx ,"
bx /
bx -"
bx ,
bx C"
b10 \
0I
0J
0G
0$
0k
0#
0`
b0 %
b0 [
1"
#690000
0"
#700000
b0 r
b1 s
b1111 8"
b0 4"
b1 0"
b1111 7"
b1000011111110 ;"
b0 3"
b0 /"
b11 t
b1000011111110 !
b1000011111110 1
b1000011111110 B"
b111111110 <"
b1 6"
b0 2"
b1111 9"
b0 ."
b100110001 3
b100110001 q
b11110 ="
b11110 :"
b1111 5"
b0 1"
b10001 u
b0 z
b1111 {
b0 $"
b0 %"
b0 &"
b1111 '"
b0 ("
b0 )"
b1111 *"
b0 +"
b0 |
b0 }
b0 ~
b0 !"
b0 ""
b0 #"
b100100010 v
b1100 D"
b1111111111111111 A"
b1111111111111111 @"
b1111111111111111 ?"
b1111111111111111 >"
b1111 l
b100100010 m
b11000 G"
b1100 F"
b1100 +
b1100 E"
1w
1n
b1111 0
b1111 ,"
b100100010 /
b100100010 -"
b11000 ,
b11000 C"
b10 Z
b10 X
b1 W
b100100010 ^
1I
1J
1E
b11 \
1"
#710000
0"
#720000
b10 t
b0 8"
b0 7"
b0 !
b0 1
b0 B"
b0 6"
b0 4"
b0 0"
b100100010 3
b100100010 q
b0 <"
b0 ="
b0 :"
b0 ;"
b10 u
b0 {
b0 '"
b0 9"
b0 5"
b0 *"
b0 l
b0 0
b0 ,"
b100 \
b111 _
b100100010 i
1"
#730000
0"
#740000
b1000 8"
b1000 7"
b100100010000100 !
b100100010000100 1
b100100010000100 B"
b100 6"
b1000 4"
b100 0"
b1001000100 3
b1001000100 q
b10011010000100 <"
b1001000100 ="
b1001000100 :"
b100100010000100 ;"
b1 3"
b1 2"
b100 u
b100 t
b10 s
b100100010 {
b100100010 '"
b100100010 9"
b100100010 5"
b100100010 *"
b100100010 l
b100100010 0
b100100010 ,"
b101 \
1"
#750000
0"
#760000
b111 (
b111 R
b1 \
1"
#770000
b0 -
b110 )
0"
#780000
bx 8"
bx 4"
bx 0"
bx 7"
bx 6"
bx ."
bx 3
bx q
bx 3"
bx /"
bx 2"
b0xxxx %"
b0xxxx $"
bx ;"
bx <"
bx ="
b0xxxx z
b0xxxx0000 )"
b0xxxx0000 ("
bx :"
b0xxxx0000 &"
b0xxxx00000000 }
b0xxxx00000000 |
b0xxxx00000000 +"
bx000000000000 #"
bx000000000000 ""
bx000000000000 !"
bx 1"
bx000000000000 ~
bx u
bx t
bx s
bx r
b0xxxx {
b0xxxx0000 '"
bx 9"
bx 5"
b0xxxx00000000 *"
bx v
b0xxxxxxxxxxxxxxx D"
b0xxx0xxx0xxx0xxx +
b0xxx0xxx0xxx0xxx E"
b1111 A"
b11110000 @"
b111100000000 ?"
b1111000000000000 >"
bx !
bx 1
bx B"
bx l
bx m
bx G"
bx F"
0w
0n
bx 0
bx ,"
bx /
bx -"
bx ,
bx C"
b0 i
b0 Z
b0 X
b0 W
b0 ^
0I
0J
0E
b10 \
1"
#790000
0"
#800000
b0 r
b1 s
b11 8"
b1011 4"
b1 0"
b11 7"
b1101100110000 ;"
b0 3"
b0 /"
b11 t
b1101100110000 !
b1101100110000 1
b1101100110000 B"
b1101100110000 <"
b10 6"
b0 2"
b0 9"
b0 ."
b100111010 3
b100111010 q
b100100010000 ="
b100100010 :"
b0 5"
b0 1"
b1010 u
b11000 v
b100100010 %"
b0 $"
b0 {
b0 z
b0 )"
b0 ("
b0 '"
b100100010 &"
b0 }
b0 |
b0 +"
b0 *"
b0 #"
b0 ""
b0 !"
b0 ~
b11000 m
b100100010 l
b1111111111111111 A"
b1111111111111111 @"
b1111111111111111 ?"
b1111111111111111 >"
b11000 /
b11000 -"
b100100010 0
b100100010 ,"
1w
1n
b11 \
b10 Z
b1 Y
b110 ^
1K
1;
1"
#810000
0"
#820000
b1000 _
b100111010 c
b100 \
1"
#830000
0"
#840000
b101 \
1"
#850000
0"
#860000
b1110101110000 !
b1110101110000 1
b1110101110000 B"
b111 8"
b1101 4"
b111 7"
b101010010 3
b101010010 q
b100111010000 ="
b1110101110000 ;"
b1110101110000 <"
b11 6"
b10010 u
b101 t
b100111010 %"
b100111010 :"
b100111010 &"
b100111010 l
b100111010 0
b100111010 ,"
b1000 (
b1000 R
b1 \
1"
#870000
b101001 -
b101001010000000011 )
0"
#880000
bx 3"
bx /"
bx 2"
bx ."
bx 8"
bx 4"
bx 0"
bx 7"
b0xxxx z
b0xxxx {
b0xxxx $"
b0xxxx0000 '"
b0xxxx0000 ("
b0xxxx0000 )"
bx 9"
bx 5"
b0xxxx00000000 *"
b0xxxx00000000 +"
b0xxxx00000000 |
b0xxxx00000000 }
bx 1"
bx000000000000 ~
bx000000000000 !"
bx000000000000 ""
bx000000000000 #"
bx ="
bx ;"
bx <"
bx 6"
bx 3
bx q
bx v
bx u
bx s
bx r
b0xxxx %"
bx :"
b0xxxx0000 &"
bx t
bx m
bx l
b1111 A"
b11110000 @"
b111100000000 ?"
b1111000000000000 >"
bx !
bx 1
bx B"
bx /
bx -"
bx 0
bx ,"
0w
0n
b10 \
b0 Z
b0 Y
b0 ^
0K
0;
b0 c
1"
#890000
0"
#900000
b0 r
b1 s
b1010 8"
b11 4"
b0 0"
b1010 7"
b1110101110 ;"
b0 3"
b0 /"
b11 t
b1110101110 !
b1110101110 1
b1110101110 B"
b1110101110 <"
b0 6"
b0 2"
b0 9"
b0 ."
b100111101 3
b100111101 q
b1110101110 ="
b0 :"
b0 5"
b0 1"
b1101 u
b100111010 z
b100111010 {
b0 $"
b0 %"
b0 &"
b0 '"
b0 ("
b0 )"
b0 *"
b0 +"
b0 |
b0 }
b0 ~
b0 !"
b0 ""
b0 #"
b11 v
b1111111111111111 A"
b1111111111111111 @"
b1111111111111111 ?"
b1111111111111111 >"
b100111010 l
b11 m
b0xxxxxxxxxxxxxxx +
b0xxxxxxxxxxxxxxx E"
1w
1n
b100111010 0
b100111010 ,"
b11 /
b11 -"
b11 Z
b1 W
b11 ^
1I
1J
1G
b11 \
1"
#910000
0"
#920000
b100 \
b1001 _
b100111010 '
b100111010 ]
b1111111100 %
b1111111100 [
1#
1`
1$
1k
1"
#930000
0"
#940000
b101 \
1"
#950000
0"
#960000
b1001 (
b1001 R
b1 \
1"
#970000
b101001100000000100 )
0"
#980000
bx 6"
bx 3"
bx /"
bx 2"
bx ."
bx 3
bx q
bx 8"
bx 4"
bx 0"
bx 7"
b0xxxx %"
b0xxxx $"
b0xxxx0000 )"
b0xxxx0000 ("
b0xxxx0000 '"
bx :"
b0xxxx0000 &"
b0xxxx00000000 }
b0xxxx00000000 |
b0xxxx00000000 +"
bx 9"
bx 5"
b0xxxx00000000 *"
bx000000000000 #"
bx000000000000 ""
bx000000000000 !"
bx 1"
bx000000000000 ~
bx u
bx t
bx s
bx r
bx ;"
bx <"
bx ="
b0xxxx z
b0xxxx {
bx v
b1111 A"
b11110000 @"
b111100000000 ?"
b1111000000000000 >"
bx !
bx 1
bx B"
bx l
bx m
b0xxx0xxx0xxx0xxx +
b0xxx0xxx0xxx0xxx E"
0w
0n
bx 0
bx ,"
bx /
bx -"
0$
0k
0#
0`
b0 %
b0 [
b0 Z
b0 W
b0 ^
0I
0J
0G
b10 \
1"
#990000
0"
#1000000
b0 r
b0 s
b110 8"
b0 4"
b0 0"
b110 7"
b1100000 ;"
b0 3"
b0 /"
b1 t
b1100000 !
b1100000 1
b1100000 B"
b1100000 <"
b0 6"
b0 2"
b0 9"
b0 ."
b11100 3
b11100 q
b1100000 ="
b0 :"
b0 5"
b0 1"
b1100 u
b0 z
b0 {
b11000 $"
b0 %"
b0 &"
b0 '"
b0 ("
b0 )"
b0 *"
b0 +"
b0 |
b0 }
b0 ~
b0 !"
b0 ""
b0 #"
b100 v
b1010 D"
b1111111111111111 A"
b1111111111111111 @"
b1111111111111111 ?"
b1111111111111111 >"
b11000 l
b100 m
b10100 G"
b1010 F"
b1010 +
b1010 E"
1w
1n
b11000 0
b11000 ,"
b100 /
b100 -"
b10100 ,
b10100 C"
b11 \
b1 Y
b10 W
b100 ^
1I
1J
1G
1"
#1010000
0"
#1020000
b1010 _
b11000 '
b11000 ]
b1111111011 %
b1111111011 [
1#
1`
1$
1k
b100 \
1"
#1030000
0"
#1040000
b101 \
1"
#1050000
0"
#1060000
b1010 (
b1010 R
b1 \
1"
#1070000
b101001000000000101 )
0"
#1080000
bx 8"
bx 4"
bx 0"
bx 7"
bx 6"
bx 3"
bx /"
bx 2"
bx ."
bx 3
bx q
b0xxxx %"
b0xxxx {
bx ;"
bx <"
bx ="
b0xxxx z
b0xxxx0000 )"
b0xxxx0000 ("
b0xxxx0000 '"
bx :"
b0xxxx0000 &"
b0xxxx00000000 }
b0xxxx00000000 |
b0xxxx00000000 +"
bx 9"
bx 5"
b0xxxx00000000 *"
bx000000000000 #"
bx000000000000 ""
bx000000000000 !"
bx 1"
bx000000000000 ~
bx u
bx t
bx s
bx r
b0xxxx $"
bx v
b0xxxxxxxxxxxxxxx D"
b0xxx0xxx0xxx0xxx +
b0xxx0xxx0xxx0xxx E"
b1111 A"
b11110000 @"
b111100000000 ?"
b1111000000000000 >"
bx !
bx 1
bx B"
bx l
bx m
bx G"
bx F"
0w
0n
bx 0
bx ,"
bx /
bx -"
bx ,
bx C"
b10 \
b0 Y
b0 W
b0 ^
0I
0J
0G
0$
0k
0#
0`
b0 %
b0 [
1"
#1090000
0"
