VeriSlicer/Error_designs/error_design_8_4/design_8.vcd
$date
	Sat May 30 10:33:09 2026
$end
$version
	Icarus Verilog
$end
$timescale
	1ps
$end
$scope module design_8 $end
$var wire 1 ! clk $end
$var wire 32 " if_instr [31:0] $end
$var wire 32 # if_pc [31:0] $end
$var wire 1 $ reset $end
$var wire 5 % wb_rd [4:0] $end
$var wire 1 & wb_reg_write $end
$var wire 32 ' wb_wd [31:0] $end
$var wire 32 ( instr [31:0] $end
$var wire 5 ) id_rs2 [4:0] $end
$var wire 5 * id_rs1 [4:0] $end
$var wire 32 + id_rd2 [31:0] $end
$var wire 32 , id_rd1 [31:0] $end
$var wire 5 - id_rd [4:0] $end
$var wire 32 . id_pc [31:0] $end
$var wire 7 / id_opcode [6:0] $end
$var wire 32 0 id_imm [31:0] $end
$var wire 7 1 id_funct7 [6:0] $end
$var wire 3 2 id_funct3 [2:0] $end
$scope module decoder $end
$var wire 5 3 rs2 [4:0] $end
$var wire 5 4 rs1 [4:0] $end
$var wire 5 5 rd [4:0] $end
$var wire 7 6 opcode [6:0] $end
$var wire 32 7 instr [31:0] $end
$var wire 7 8 funct7 [6:0] $end
$var wire 3 9 funct3 [2:0] $end
$upscope $end
$scope module if_id_inst $end
$var wire 1 ! clk $end
$var wire 32 : instr_in [31:0] $end
$var wire 32 ; pc_in [31:0] $end
$var wire 1 $ reset $end
$var reg 32 < instr_out [31:0] $end
$var reg 32 = pc_out [31:0] $end
$upscope $end
$scope module imm_gen_inst $end
$var wire 32 > instr [31:0] $end
$var wire 7 ? opcode [6:0] $end
$var reg 32 @ imm [31:0] $end
$upscope $end
$scope module regfile_inst $end
$var wire 1 ! clk $end
$var wire 5 A rd [4:0] $end
$var wire 1 & reg_write $end
$var wire 1 $ reset $end
$var wire 5 B rs1 [4:0] $end
$var wire 5 C rs2 [4:0] $end
$var wire 32 D wd [31:0] $end
$var wire 32 E rd2 [31:0] $end
$var wire 32 F rd1 [31:0] $end
$var integer 32 G i [31:0] $end
$upscope $end
$upscope $end
$enddefinitions $end
$comment Show the parameter values. $end
$dumpall
$end
#0
$dumpvars
b100000 G
b0 F
b0 E
b0 D
b0 C
b0 B
b0 A
b0 @
b0 ?
b0 >
b0 =
b0 <
b0 ;
b0 :
b0 9
b0 8
b0 7
b0 6
b0 5
b0 4
b0 3
b0 2
b0 1
b0 0
b0 /
b0 .
b0 -
b0 ,
b0 +
b0 *
b0 )
b0 (
b0 '
0&
b0 %
1$
b0 #
b0 "
1!
$end
#5000
0!
#10000
0$
b100000 G
1!
#15000
b1010 '
b1010 D
b1 %
b1 A
1&
0!
#20000
0&
1!
#25000
b10100 '
b10100 D
b10 %
b10 A
1&
0!
#30000
0&
1!
#35000
b101 '
b101 D
b11 %
b11 A
1&
0!
#40000
0&
1!
#45000
b11011110101011011011111011101111 '
b11011110101011011011111011101111 D
b0 %
b0 A
1&
0!
#50000
0&
1!
#55000
b1000000000000 #
b1000000000000 ;
b1000001000001010110011 "
b1000001000001010110011 :
0!
